Elizabeth Johnson

Christopher Brown

Michael Wilson

Jessica Davis

Elizabeth Hernandez

Sarah Brown

Elizabeth Johnson

Christopher Hoang

William Deng

Richard Martinez

William Smith

John Rodriguez

Daniel Lopez
Nancy Davis

Jessica Hoang

Thomas Brown

Nathan Johnson

Richard Garcia
Jennifer Martinez

Karen Wilson

Joseph Smith

William Garcia

Linda Smith

Christopher Williams

Michael Martinez

Elizabeth Smith
David Wilson

Jessica Johnson

Susan Deng

William Hoang

Thomas Smith

Michael Garcia

Sarah Garcia

Joseph Lopez

Joshua Smith

Michael Wilson

Jennifer Smith

Sarah Rodriguez

Jennifer Brown

Joshua Garcia

Linda Garcia

Jennifer Williams

Thomas Brown

Barbara Jones

Mary Davis

Jessica Garcia

Patricia Martinez

Jessica Brown

James Hernandez

Susan Lopez

Lisa Johnson

Nathan Garcia

Christopher Lopez

Richard Davis

Linda Jones

Christopher Williams

Joshua Deng

William Wilson

Michael Lopez

Nathan Jones

Barbara Davis

Charles Jones

Nathan Hernandez

Susan Rodriguez

William Deng

Linda Deng

Sarah Garcia

Daniel Hernandez

Christopher Martinez

William Lopez

Patricia Hoang

Robert Johnson

Michael Garcia

Jessica Hernandez

William Wilson

John Rodriguez

Barbara Hoang

Patricia Martinez

Sarah Brown

Christopher Lopez

Thomas Hernandez

Lisa Hoang

Jennifer Lopez

Jennifer Jones

Joshua Garcia

Christopher Jones

Elizabeth Garcia

Elizabeth Smith

Mary Deng

Linda Rodriguez

Joshua Jones

Joseph Davis

Barbara Jones

Nathan Lopez

Daniel Hernandez

Daniel Brown

William Jones

James Miller

Susan Wilson

Barbara Hoang

Barbara Lopez

Nathan Miller

John Martinez
