The Player

Ed

Boromir

Rusty Venture

Theodore Dudebrough
Harry Weinhead
Boris Krinkle
Grandma Shaky

Strong Bad

Medic

Chowder

Brittany

Redmond
Blutarch

Hydrogen-F
Water-T

The Heavy

Chains

Bill

Coach
Nick

Sheldon Cooper
Raj Koothrappali

Amy Farrah Fowler

Dewey

Summer

Miku
